로지스틱 회귀(Logistic Regression) 모형의 평가: 로그 가능도 통계량 - My DataScience Blog
…
eelData$predicted.prob <- fitted(eelmodel_1)
eelData$standized.residuals <- rstandard(eelmodel_1)
eelData$studentized.residuals <- rstudent(eelmodel_1)
# eelData$dfbeta <- dfbeta(eelmodel_1)
eelData$diffit <- dffits(eelmodel_1)
eelData$leverage <- hatvalues(eelmodel_1)

예측된 확률

eelData %>%
  as_tibble() %>%
  select(Cured, Intervention, Duration, predicted.prob) 

## # A tibble: 113 x 4
##    Cured     Intervention Duration predicted.prob
##    <fct>     <fct>           <int>          <dbl>
##  1 Not Cured No Treatment        7          0.429
##  2 Not Cured No Treatment        7          0.429
##  3 Not Cured No Treatment        6          0.429
##  4 Cured     No Treatment        8          0.429
##  5 Cured     Intervention        7          0.719
##  6 Cured     No Treatment        6          0.429
##  7 Not Cured Intervention        7          0.719
##  8 Cured     Intervention        7          0.719
##  9 Cured     No Treatment        8          0.429
## 10 Not Cured No Treatment        7          0.429
## # ... with 103 more rows
…
