Logistic Regression 예제: Adult Dataset - My DataScience Blog
…
 test_data_1로 예측된 값들이 얼마나 잘 예측되었는가에 대해 알아보겠습니다. 먼저 ROC커브를 그려보겠습니다.

yobs_of_test <- ifelse(test_data$wage == "<=50K", 0, 1)

pred_logistic_of_test <- prediction(yhat_logistic_of_test, yobs_of_test)
perf_logistic_of_test <- performance(pred_logistic_of_test, measure = 'tpr', x.measure= 'fpr')

df_logistic_of_test <- data.frame(FPR = perf_logistic_of_test@x.values[[1]],
                                  TPR = perf_logistic_of_test@y.values[[1]]) %>%
  as_tibble()

df_logistic_of_test 

## # A tibble: 6,056 x 2
##      FPR    TPR
##    <dbl>  <dbl>
##  1     0 0     
##  2     0 0.0159
##  3     0 0.0166
##  4     0 0.0172
##  5     0 0.0179
##  6     0 0.0185
##  7     0 0.0191
##  8     0 0.0198
##  9     0 0.0204
## 10     0 0.0210
## # ... with 6,046 more rows
…
